…
data_long <- data1 %>% select(name, week_1:week_8, arm) %>% 
  pivot_longer(
    cols = c(week_1, week_2, week_3, week_4, week_5, week_6, week_7, week_8), 
    names_to = "week", 
    values_to = "value")
data1 %>% select(name, week_1:week_8, arm ) %>% 
  pivot_longer(
    cols = c(week_1, week_2, week_3, week_4, week_5, week_6, week_7, week_8), 
    names_to = "week", 
    values_to = "value")
```

    ## # A tibble: 160 × 4
    ##    name   arm     week   value
    ##    <chr>  <chr>   <chr>  <dbl>
    ##  1 con_01 control week_1  0.2 
    ##  2 con_01 control week_2 -1.31
    ##  3 con_01 control week_3  0.66
    ##  4 con_01 control week_4  1.96
    ##  5 con_01 control week_5  0.23
    ##  6 con_01 control week_6  1.09
    ##  7 con_01 control week_7  0.05
    ##  8 con_01 control week_8  1.94
    ##  9 con_02 control week_1  1.13
    ## 10 con_02 control week_2 -0.88
    ## # … with 150 more rows
…
